EESchema Schematic File Version 4
LIBS:EXTpad-cache
EELAYER 26 0
EELAYER END
$Descr A4 11693 8268
encoding utf-8
Sheet 1 1
Title "EXTpad (for Escornabot)"
Date "2018-07-21"
Rev "v2.3k"
Comp "Escornabot EXT | ext.escornabot.org"
Comment1 "Licensed under CERN OHL v1.2"
Comment2 "Copyright © 2018 Xoán Sampaíño"
Comment3 ""
Comment4 ""
$EndDescr
$Comp
L EXTpad:GND #PWR?
U 1 1 5AB1520F
P 5600 4600
F 0 "#PWR?" H 5600 4350 50  0001 C CNN
F 1 "GND" H 5600 4450 50  0000 C CNN
F 2 "" H 5600 4600 50  0001 C CNN
F 3 "" H 5600 4600 50  0001 C CNN
	1    5600 4600
	1    0    0    -1  
$EndComp
$Comp
L EXTpad:PWR_FLAG #FLG?
U 1 1 5AB15223
P 5400 4400
F 0 "#FLG?" H 5400 4475 50  0001 C CNN
F 1 "PWR_FLAG" H 5400 4550 50  0000 C CNN
F 2 "" H 5400 4400 50  0001 C CNN
F 3 "" H 5400 4400 50  0001 C CNN
	1    5400 4400
	0    -1   -1   0   
$EndComp
$Comp
L EXTpad:PWR_FLAG #FLG?
U 1 1 5AB15235
P 5400 3400
F 0 "#FLG?" H 5400 3475 50  0001 C CNN
F 1 "PWR_FLAG" H 5400 3550 50  0000 C CNN
F 2 "" H 5400 3400 50  0001 C CNN
F 3 "" H 5400 3400 50  0001 C CNN
	1    5400 3400
	0    -1   -1   0   
$EndComp
$Comp
L EXTpad:Conn_01x03 J1
U 1 1 5AB15254
P 5300 3900
F 0 "J1" H 5300 3700 50  0000 C CNN
F 1 "Conn_01x03" H 5300 4100 50  0000 C CNN
F 2 "EXTpad:PinHeader_1x03_P2.54mm_Vertical" H 5300 3900 50  0001 C CNN
F 3 "" H 5300 3900 50  0001 C CNN
	1    5300 3900
	-1   0    0    1   
$EndComp
$Comp
L EXTpad:R R1
U 1 1 5AB15308
P 6600 2550
F 0 "R1" V 6680 2550 50  0000 C CNN
F 1 "10K" V 6600 2550 50  0000 C CNN
F 2 "EXTpad:R_Axial_DIN0207_L6.3mm_D2.5mm_P7.62mm_Horizontal" V 6530 2550 50  0001 C CNN
F 3 "" H 6600 2550 50  0001 C CNN
	1    6600 2550
	1    0    0    -1  
$EndComp
$Comp
L EXTpad:R R2
U 1 1 5AB15331
P 6600 3050
F 0 "R2" V 6680 3050 50  0000 C CNN
F 1 "10K" V 6600 3050 50  0000 C CNN
F 2 "EXTpad:R_Axial_DIN0207_L6.3mm_D2.5mm_P7.62mm_Horizontal" V 6530 3050 50  0001 C CNN
F 3 "" H 6600 3050 50  0001 C CNN
	1    6600 3050
	1    0    0    -1  
$EndComp
$Comp
L EXTpad:SW_Push SW1
U 1 1 5AB153AF
P 6300 2800
F 0 "SW1" H 6350 2900 50  0000 L CNN
F 1 "SW_GO" H 6300 2740 50  0000 C CNN
F 2 "EXTpad:SW_PUSH_6mm_H5mm" H 6300 3000 50  0001 C CNN
F 3 "" H 6300 3000 50  0001 C CNN
	1    6300 2800
	1    0    0    -1  
$EndComp
$Comp
L EXTpad:SW_Push SW2
U 1 1 5AB15416
P 6300 3300
F 0 "SW2" H 6350 3400 50  0000 L CNN
F 1 "SW_FORWARD" H 6300 3240 50  0000 C CNN
F 2 "EXTpad:SW_PUSH_6mm_H5mm" H 6300 3500 50  0001 C CNN
F 3 "" H 6300 3500 50  0001 C CNN
	1    6300 3300
	1    0    0    -1  
$EndComp
$Comp
L EXTpad:SW_Push SW3
U 1 1 5AB15455
P 6300 3800
F 0 "SW3" H 6350 3900 50  0000 L CNN
F 1 "SW_LEFT" H 6300 3740 50  0000 C CNN
F 2 "EXTpad:SW_PUSH_6mm_H5mm" H 6300 4000 50  0001 C CNN
F 3 "" H 6300 4000 50  0001 C CNN
	1    6300 3800
	1    0    0    -1  
$EndComp
$Comp
L EXTpad:R R3
U 1 1 5AB1548B
P 6600 3550
F 0 "R3" V 6680 3550 50  0000 C CNN
F 1 "10K" V 6600 3550 50  0000 C CNN
F 2 "EXTpad:R_Axial_DIN0207_L6.3mm_D2.5mm_P7.62mm_Horizontal" V 6530 3550 50  0001 C CNN
F 3 "" H 6600 3550 50  0001 C CNN
	1    6600 3550
	1    0    0    -1  
$EndComp
$Comp
L EXTpad:R R4
U 1 1 5AB1557D
P 6600 4050
F 0 "R4" V 6680 4050 50  0000 C CNN
F 1 "10K" V 6600 4050 50  0000 C CNN
F 2 "EXTpad:R_Axial_DIN0207_L6.3mm_D2.5mm_P7.62mm_Horizontal" V 6530 4050 50  0001 C CNN
F 3 "" H 6600 4050 50  0001 C CNN
	1    6600 4050
	1    0    0    -1  
$EndComp
$Comp
L EXTpad:SW_Push SW4
U 1 1 5AB155B9
P 6300 4300
F 0 "SW4" H 6350 4400 50  0000 L CNN
F 1 "SW_BACK" H 6300 4240 50  0000 C CNN
F 2 "EXTpad:SW_PUSH_6mm_H5mm" H 6300 4500 50  0001 C CNN
F 3 "" H 6300 4500 50  0001 C CNN
	1    6300 4300
	1    0    0    -1  
$EndComp
$Comp
L EXTpad:R R5
U 1 1 5AB1560A
P 6600 4550
F 0 "R5" V 6680 4550 50  0000 C CNN
F 1 "10K" V 6600 4550 50  0000 C CNN
F 2 "EXTpad:R_Axial_DIN0207_L6.3mm_D2.5mm_P7.62mm_Horizontal" V 6530 4550 50  0001 C CNN
F 3 "" H 6600 4550 50  0001 C CNN
	1    6600 4550
	1    0    0    -1  
$EndComp
$Comp
L EXTpad:SW_Push SW5
U 1 1 5AB1570A
P 6300 4800
F 0 "SW5" H 6350 4900 50  0000 L CNN
F 1 "SW_RIGHT" H 6300 4740 50  0000 C CNN
F 2 "EXTpad:SW_PUSH_6mm_H5mm" H 6300 5000 50  0001 C CNN
F 3 "" H 6300 5000 50  0001 C CNN
	1    6300 4800
	1    0    0    -1  
$EndComp
$Comp
L EXTpad:R R6
U 1 1 5AB1575E
P 6600 5050
F 0 "R6" V 6680 5050 50  0000 C CNN
F 1 "10K" V 6600 5050 50  0000 C CNN
F 2 "EXTpad:R_Axial_DIN0207_L6.3mm_D2.5mm_P7.62mm_Horizontal" V 6530 5050 50  0001 C CNN
F 3 "" H 6600 5050 50  0001 C CNN
	1    6600 5050
	1    0    0    -1  
$EndComp
$Comp
L EXTpad:R R7
U 1 1 5AB164EE
P 6300 5300
F 0 "R7" V 6380 5300 50  0000 C CNN
F 1 "1M" V 6300 5300 50  0000 C CNN
F 2 "EXTpad:R_Axial_DIN0207_L6.3mm_D2.5mm_P7.62mm_Horizontal" V 6230 5300 50  0001 C CNN
F 3 "" H 6300 5300 50  0001 C CNN
	1    6300 5300
	0    -1   -1   0   
$EndComp
$Comp
L EXTpad:VCC #PWR?
U 1 1 5AB302BA
P 5600 3200
F 0 "#PWR?" H 5600 3050 50  0001 C CNN
F 1 "VCC" H 5600 3350 50  0000 C CNN
F 2 "" H 5600 3200 50  0001 C CNN
F 3 "" H 5600 3200 50  0001 C CNN
	1    5600 3200
	1    0    0    -1  
$EndComp
Text Notes 800  2400 0    60   ~ 0
Copyright © 2018 Xoán Sampaíño\n\nThis documentation describes Open Hardware and is licensed under the\nCERN OHL v1.2.\n\nYou may redistribute and modify this documentation under the terms of the\nCERN OHL v1.2. (http://ohwr.org/cernohl). This documentation is distributed\nWITHOUT ANY EXPRESS OR IMPLIED WARRANTY, INCLUDING OF\nMERCHANTABILITY, SATISFACTORY QUALITY AND FITNESS FOR A\nPARTICULAR PURPOSE. Please see the CERN OHL v1.2 for applicable\nconditions.
Text Notes 750  1150 0    295  ~ 59
EXTpad v2.3k
Text Notes 2900 1400 0    120  Italic 24
(for Escornabot)
$Comp
L EXTpad:GND #PWR?
U 1 1 5AB486AB
P 6600 5500
F 0 "#PWR?" H 6600 5250 50  0001 C CNN
F 1 "GND" H 6600 5350 50  0000 C CNN
F 2 "" H 6600 5500 50  0001 C CNN
F 3 "" H 6600 5500 50  0001 C CNN
	1    6600 5500
	1    0    0    -1  
$EndComp
Text Notes 4100 6500 0    100  ~ 20
Mounting Holes
Text Notes 4100 4000 0    100  ~ 20
Keypad
$Comp
L EXTpad:VCC #PWR?
U 1 1 5AC0BDA5
P 6600 2200
F 0 "#PWR?" H 6600 2050 50  0001 C CNN
F 1 "VCC" H 6600 2350 50  0000 C CNN
F 2 "" H 6600 2200 50  0001 C CNN
F 3 "" H 6600 2200 50  0001 C CNN
	1    6600 2200
	1    0    0    -1  
$EndComp
Text Label 5700 3800 0    50   ~ 0
SIG
Wire Wire Line
	6000 4800 6100 4800
Wire Wire Line
	6100 3300 6000 3300
Wire Wire Line
	6600 2200 6600 2400
Connection ~ 5600 4400
Wire Wire Line
	5400 4400 5600 4400
Connection ~ 5600 3400
Wire Wire Line
	5400 3400 5600 3400
Wire Wire Line
	5500 4000 5600 4000
Wire Wire Line
	5600 4000 5600 4400
Wire Wire Line
	5600 3200 5600 3400
Connection ~ 6000 3300
Connection ~ 6000 3800
Connection ~ 6000 4300
Wire Wire Line
	6000 4300 6100 4300
Wire Wire Line
	6000 2800 6000 3300
Wire Wire Line
	6600 5200 6600 5300
Connection ~ 6600 4800
Wire Wire Line
	6500 4800 6600 4800
Wire Wire Line
	6600 4700 6600 4800
Connection ~ 6600 4300
Wire Wire Line
	6500 4300 6600 4300
Wire Wire Line
	6600 4200 6600 4300
Connection ~ 6600 3800
Wire Wire Line
	6500 3800 6600 3800
Wire Wire Line
	6600 3700 6600 3800
Connection ~ 6600 3300
Wire Wire Line
	6500 3300 6600 3300
Wire Wire Line
	6600 3200 6600 3300
Connection ~ 6600 2800
Wire Wire Line
	6500 2800 6600 2800
Wire Wire Line
	6600 2700 6600 2800
Wire Wire Line
	5600 3900 5500 3900
Wire Wire Line
	6000 2800 6100 2800
Wire Wire Line
	5500 3800 6000 3800
Wire Wire Line
	5600 4400 5600 4600
Wire Wire Line
	5600 3400 5600 3900
Wire Wire Line
	6000 3300 6000 3800
Wire Wire Line
	6000 3800 6100 3800
Wire Wire Line
	6000 3800 6000 4300
Wire Wire Line
	6000 4300 6000 4800
Wire Wire Line
	6600 4800 6600 4900
Wire Wire Line
	6600 4300 6600 4400
Wire Wire Line
	6600 3800 6600 3900
Wire Wire Line
	6600 3300 6600 3400
Wire Wire Line
	6600 2800 6600 2900
Wire Wire Line
	6450 5300 6600 5300
Connection ~ 6600 5300
Wire Wire Line
	6600 5300 6600 5500
Wire Wire Line
	6150 5300 6000 5300
Wire Wire Line
	6000 5300 6000 4800
Connection ~ 6000 4800
$Comp
L EXTpad:Mounting_Hole MK1
U 1 1 5B52EF49
P 5200 6900
F 0 "MK1" H 5300 6946 50  0000 L CNN
F 1 "Mounting_Hole" H 5300 6855 50  0000 L CNN
F 2 "EXTpad:MountingHole_3.2mm_M3" H 5200 6900 50  0001 C CNN
F 3 "" H 5200 6900 50  0001 C CNN
	1    5200 6900
	1    0    0    -1  
$EndComp
$Comp
L EXTpad:Mounting_Hole MK3
U 1 1 5B52EFAF
P 6000 6900
F 0 "MK3" H 6100 6946 50  0000 L CNN
F 1 "Mounting_Hole" H 6100 6855 50  0000 L CNN
F 2 "EXTpad:MountingHole_3.2mm_M3" H 6000 6900 50  0001 C CNN
F 3 "" H 6000 6900 50  0001 C CNN
	1    6000 6900
	1    0    0    -1  
$EndComp
$Comp
L EXTpad:Mounting_Hole MK2
U 1 1 5B52F003
P 5200 7300
F 0 "MK2" H 5300 7346 50  0000 L CNN
F 1 "Mounting_Hole" H 5300 7255 50  0000 L CNN
F 2 "EXTpad:MountingHole_3.2mm_M3" H 5200 7300 50  0001 C CNN
F 3 "" H 5200 7300 50  0001 C CNN
	1    5200 7300
	1    0    0    -1  
$EndComp
$Comp
L EXTpad:Mounting_Hole MK4
U 1 1 5B52F047
P 6000 7300
F 0 "MK4" H 6100 7346 50  0000 L CNN
F 1 "Mounting_Hole" H 6100 7255 50  0000 L CNN
F 2 "EXTpad:MountingHole_3.2mm_M3" H 6000 7300 50  0001 C CNN
F 3 "" H 6000 7300 50  0001 C CNN
	1    6000 7300
	1    0    0    -1  
$EndComp
$Comp
L EXTpad:Logo_Open_Hardware_Small #LOGO2
U 1 1 5B53E927
P 10900 6875
F 0 "#LOGO2" H 10900 7150 50  0001 C CNN
F 1 "Logo_Open_Hardware_Small" H 10900 6650 50  0001 C CNN
F 2 "" H 10900 6875 50  0001 C CNN
F 3 "~" H 10900 6875 50  0001 C CNN
	1    10900 6875
	1    0    0    -1  
$EndComp
$Comp
L EXTpad:Logo_Escornabot_Small #LOGO1
U 1 1 5B53FF1A
P 10325 6850
F 0 "#LOGO1" H 10325 7100 60  0001 C CNN
F 1 "Logo_Escornabot_Small" H 10325 6600 60  0001 C CNN
F 2 "" H 10325 6850 60  0001 C CNN
F 3 "" H 10325 6850 60  0001 C CNN
	1    10325 6850
	1    0    0    -1  
$EndComp
$EndSCHEMATC
